<svg width="199" height="198" viewBox="0 0 199 198" fill="none" xmlns="http://www.w3.org/2000/svg">
<path fill-rule="evenodd" clip-rule="evenodd" d="M6.40479 2.75C6.40479 4.26869 5.17347 5.5 3.65479 5.5C2.1361 5.5 0.904785 4.26869 0.904785 2.75C0.904785 1.23131 2.1361 0 3.65479 0C5.17347 0 6.40479 1.23131 6.40479 2.75" fill="#3B43F2"/>
<path fill-rule="evenodd" clip-rule="evenodd" d="M33.9048 2.75C33.9048 4.26869 32.6735 5.5 31.1548 5.5C29.6361 5.5 28.4048 4.26869 28.4048 2.75C28.4048 1.23131 29.6361 0 31.1548 0C32.6735 0 33.9048 1.23131 33.9048 2.75" fill="#3B43F2"/>
<path fill-rule="evenodd" clip-rule="evenodd" d="M61.4048 2.75C61.4048 4.26869 60.1735 5.5 58.6548 5.5C57.1361 5.5 55.9048 4.26869 55.9048 2.75C55.9048 1.23131 57.1361 0 58.6548 0C60.1735 0 61.4048 1.23131 61.4048 2.75" fill="#3B43F2"/>
<path fill-rule="evenodd" clip-rule="evenodd" d="M88.9048 2.75C88.9048 4.26869 87.6735 5.5 86.1548 5.5C84.6361 5.5 83.4048 4.26869 83.4048 2.75C83.4048 1.23131 84.6361 0 86.1548 0C87.6735 0 88.9048 1.23131 88.9048 2.75" fill="#3B43F2"/>
<path fill-rule="evenodd" clip-rule="evenodd" d="M116.405 2.75C116.405 4.26869 115.173 5.5 113.655 5.5C112.136 5.5 110.905 4.26869 110.905 2.75C110.905 1.23131 112.136 0 113.655 0C115.173 0 116.405 1.23131 116.405 2.75" fill="#3B43F2"/>
<path fill-rule="evenodd" clip-rule="evenodd" d="M143.905 2.75C143.905 4.26869 142.673 5.5 141.155 5.5C139.636 5.5 138.405 4.26869 138.405 2.75C138.405 1.23131 139.636 0 141.155 0C142.673 0 143.905 1.23131 143.905 2.75" fill="#3B43F2"/>
<path fill-rule="evenodd" clip-rule="evenodd" d="M171.405 2.75C171.405 4.26869 170.173 5.5 168.655 5.5C167.136 5.5 165.905 4.26869 165.905 2.75C165.905 1.23131 167.136 0 168.655 0C170.173 0 171.405 1.23131 171.405 2.75" fill="#3B43F2"/>
<path fill-rule="evenodd" clip-rule="evenodd" d="M198.905 2.75C198.905 4.26869 197.673 5.5 196.155 5.5C194.636 5.5 193.405 4.26869 193.405 2.75C193.405 1.23131 194.636 0 196.155 0C197.673 0 198.905 1.23131 198.905 2.75" fill="#3B43F2"/>
<path fill-rule="evenodd" clip-rule="evenodd" d="M6.40479 30.25C6.40479 31.7687 5.17347 33 3.65479 33C2.1361 33 0.904785 31.7687 0.904785 30.25C0.904785 28.7313 2.1361 27.5 3.65479 27.5C5.17347 27.5 6.40479 28.7313 6.40479 30.25" fill="#3B43F2"/>
<path fill-rule="evenodd" clip-rule="evenodd" d="M33.9048 30.25C33.9048 31.7687 32.6735 33 31.1548 33C29.6361 33 28.4048 31.7687 28.4048 30.25C28.4048 28.7313 29.6361 27.5 31.1548 27.5C32.6735 27.5 33.9048 28.7313 33.9048 30.25" fill="#3B43F2"/>
<path fill-rule="evenodd" clip-rule="evenodd" d="M61.4048 30.25C61.4048 31.7687 60.1735 33 58.6548 33C57.1361 33 55.9048 31.7687 55.9048 30.25C55.9048 28.7313 57.1361 27.5 58.6548 27.5C60.1735 27.5 61.4048 28.7313 61.4048 30.25" fill="#3B43F2"/>
<path fill-rule="evenodd" clip-rule="evenodd" d="M88.9048 30.25C88.9048 31.7687 87.6735 33 86.1548 33C84.6361 33 83.4048 31.7687 83.4048 30.25C83.4048 28.7313 84.6361 27.5 86.1548 27.5C87.6735 27.5 88.9048 28.7313 88.9048 30.25" fill="#3B43F2"/>
<path fill-rule="evenodd" clip-rule="evenodd" d="M116.405 30.25C116.405 31.7687 115.173 33 113.655 33C112.136 33 110.905 31.7687 110.905 30.25C110.905 28.7313 112.136 27.5 113.655 27.5C115.173 27.5 116.405 28.7313 116.405 30.25" fill="#3B43F2"/>
<path fill-rule="evenodd" clip-rule="evenodd" d="M143.905 30.25C143.905 31.7687 142.673 33 141.155 33C139.636 33 138.405 31.7687 138.405 30.25C138.405 28.7313 139.636 27.5 141.155 27.5C142.673 27.5 143.905 28.7313 143.905 30.25" fill="#3B43F2"/>
<path fill-rule="evenodd" clip-rule="evenodd" d="M171.405 30.25C171.405 31.7687 170.173 33 168.655 33C167.136 33 165.905 31.7687 165.905 30.25C165.905 28.7313 167.136 27.5 168.655 27.5C170.173 27.5 171.405 28.7313 171.405 30.25" fill="#3B43F2"/>
<path fill-rule="evenodd" clip-rule="evenodd" d="M198.905 30.25C198.905 31.7687 197.673 33 196.155 33C194.636 33 193.405 31.7687 193.405 30.25C193.405 28.7313 194.636 27.5 196.155 27.5C197.673 27.5 198.905 28.7313 198.905 30.25" fill="#3B43F2"/>
<path fill-rule="evenodd" clip-rule="evenodd" d="M6.40479 57.75C6.40479 59.2687 5.17347 60.5 3.65479 60.5C2.1361 60.5 0.904785 59.2687 0.904785 57.75C0.904785 56.2313 2.1361 55 3.65479 55C5.17347 55 6.40479 56.2313 6.40479 57.75" fill="#3B43F2"/>
<path fill-rule="evenodd" clip-rule="evenodd" d="M33.9048 57.75C33.9048 59.2687 32.6735 60.5 31.1548 60.5C29.6361 60.5 28.4048 59.2687 28.4048 57.75C28.4048 56.2313 29.6361 55 31.1548 55C32.6735 55 33.9048 56.2313 33.9048 57.75" fill="#3B43F2"/>
<path fill-rule="evenodd" clip-rule="evenodd" d="M61.4048 57.75C61.4048 59.2687 60.1735 60.5 58.6548 60.5C57.1361 60.5 55.9048 59.2687 55.9048 57.75C55.9048 56.2313 57.1361 55 58.6548 55C60.1735 55 61.4048 56.2313 61.4048 57.75" fill="#3B43F2"/>
<path fill-rule="evenodd" clip-rule="evenodd" d="M88.9048 57.75C88.9048 59.2687 87.6735 60.5 86.1548 60.5C84.6361 60.5 83.4048 59.2687 83.4048 57.75C83.4048 56.2313 84.6361 55 86.1548 55C87.6735 55 88.9048 56.2313 88.9048 57.75" fill="#3B43F2"/>
<path fill-rule="evenodd" clip-rule="evenodd" d="M116.405 57.75C116.405 59.2687 115.173 60.5 113.655 60.5C112.136 60.5 110.905 59.2687 110.905 57.75C110.905 56.2313 112.136 55 113.655 55C115.173 55 116.405 56.2313 116.405 57.75" fill="#3B43F2"/>
<path fill-rule="evenodd" clip-rule="evenodd" d="M143.905 57.75C143.905 59.2687 142.673 60.5 141.155 60.5C139.636 60.5 138.405 59.2687 138.405 57.75C138.405 56.2313 139.636 55 141.155 55C142.673 55 143.905 56.2313 143.905 57.75" fill="#3B43F2"/>
<path fill-rule="evenodd" clip-rule="evenodd" d="M171.405 57.75C171.405 59.2687 170.173 60.5 168.655 60.5C167.136 60.5 165.905 59.2687 165.905 57.75C165.905 56.2313 167.136 55 168.655 55C170.173 55 171.405 56.2313 171.405 57.75" fill="#3B43F2"/>
<path fill-rule="evenodd" clip-rule="evenodd" d="M198.905 57.75C198.905 59.2687 197.673 60.5 196.155 60.5C194.636 60.5 193.405 59.2687 193.405 57.75C193.405 56.2313 194.636 55 196.155 55C197.673 55 198.905 56.2313 198.905 57.75" fill="#3B43F2"/>
<path fill-rule="evenodd" clip-rule="evenodd" d="M6.40479 85.25C6.40479 86.7687 5.17347 88 3.65479 88C2.1361 88 0.904785 86.7687 0.904785 85.25C0.904785 83.7313 2.1361 82.5 3.65479 82.5C5.17347 82.5 6.40479 83.7313 6.40479 85.25" fill="#3B43F2"/>
<path fill-rule="evenodd" clip-rule="evenodd" d="M33.9048 85.25C33.9048 86.7687 32.6735 88 31.1548 88C29.6361 88 28.4048 86.7687 28.4048 85.25C28.4048 83.7313 29.6361 82.5 31.1548 82.5C32.6735 82.5 33.9048 83.7313 33.9048 85.25" fill="#3B43F2"/>
<path fill-rule="evenodd" clip-rule="evenodd" d="M61.4048 85.25C61.4048 86.7687 60.1735 88 58.6548 88C57.1361 88 55.9048 86.7687 55.9048 85.25C55.9048 83.7313 57.1361 82.5 58.6548 82.5C60.1735 82.5 61.4048 83.7313 61.4048 85.25" fill="#3B43F2"/>
<path fill-rule="evenodd" clip-rule="evenodd" d="M88.9048 85.25C88.9048 86.7687 87.6735 88 86.1548 88C84.6361 88 83.4048 86.7687 83.4048 85.25C83.4048 83.7313 84.6361 82.5 86.1548 82.5C87.6735 82.5 88.9048 83.7313 88.9048 85.25" fill="#3B43F2"/>
<path fill-rule="evenodd" clip-rule="evenodd" d="M116.405 85.25C116.405 86.7687 115.173 88 113.655 88C112.136 88 110.905 86.7687 110.905 85.25C110.905 83.7313 112.136 82.5 113.655 82.5C115.173 82.5 116.405 83.7313 116.405 85.25" fill="#3B43F2"/>
<path fill-rule="evenodd" clip-rule="evenodd" d="M143.905 85.25C143.905 86.7687 142.673 88 141.155 88C139.636 88 138.405 86.7687 138.405 85.25C138.405 83.7313 139.636 82.5 141.155 82.5C142.673 82.5 143.905 83.7313 143.905 85.25" fill="#3B43F2"/>
<path fill-rule="evenodd" clip-rule="evenodd" d="M171.405 85.25C171.405 86.7687 170.173 88 168.655 88C167.136 88 165.905 86.7687 165.905 85.25C165.905 83.7313 167.136 82.5 168.655 82.5C170.173 82.5 171.405 83.7313 171.405 85.25" fill="#3B43F2"/>
<path fill-rule="evenodd" clip-rule="evenodd" d="M198.905 85.25C198.905 86.7687 197.673 88 196.155 88C194.636 88 193.405 86.7687 193.405 85.25C193.405 83.7313 194.636 82.5 196.155 82.5C197.673 82.5 198.905 83.7313 198.905 85.25" fill="#3B43F2"/>
<path fill-rule="evenodd" clip-rule="evenodd" d="M6.40479 112.75C6.40479 114.269 5.17347 115.5 3.65479 115.5C2.1361 115.5 0.904785 114.269 0.904785 112.75C0.904785 111.231 2.1361 110 3.65479 110C5.17347 110 6.40479 111.231 6.40479 112.75" fill="#3B43F2"/>
<path fill-rule="evenodd" clip-rule="evenodd" d="M33.9048 112.75C33.9048 114.269 32.6735 115.5 31.1548 115.5C29.6361 115.5 28.4048 114.269 28.4048 112.75C28.4048 111.231 29.6361 110 31.1548 110C32.6735 110 33.9048 111.231 33.9048 112.75" fill="#3B43F2"/>
<path fill-rule="evenodd" clip-rule="evenodd" d="M61.4048 112.75C61.4048 114.269 60.1735 115.5 58.6548 115.5C57.1361 115.5 55.9048 114.269 55.9048 112.75C55.9048 111.231 57.1361 110 58.6548 110C60.1735 110 61.4048 111.231 61.4048 112.75" fill="#3B43F2"/>
<path fill-rule="evenodd" clip-rule="evenodd" d="M88.9048 112.75C88.9048 114.269 87.6735 115.5 86.1548 115.5C84.6361 115.5 83.4048 114.269 83.4048 112.75C83.4048 111.231 84.6361 110 86.1548 110C87.6735 110 88.9048 111.231 88.9048 112.75" fill="#3B43F2"/>
<path fill-rule="evenodd" clip-rule="evenodd" d="M116.405 112.75C116.405 114.269 115.173 115.5 113.655 115.5C112.136 115.5 110.905 114.269 110.905 112.75C110.905 111.231 112.136 110 113.655 110C115.173 110 116.405 111.231 116.405 112.75" fill="#3B43F2"/>
<path fill-rule="evenodd" clip-rule="evenodd" d="M143.905 112.75C143.905 114.269 142.673 115.5 141.155 115.5C139.636 115.5 138.405 114.269 138.405 112.75C138.405 111.231 139.636 110 141.155 110C142.673 110 143.905 111.231 143.905 112.75" fill="#3B43F2"/>
<path fill-rule="evenodd" clip-rule="evenodd" d="M171.405 112.75C171.405 114.269 170.173 115.5 168.655 115.5C167.136 115.5 165.905 114.269 165.905 112.75C165.905 111.231 167.136 110 168.655 110C170.173 110 171.405 111.231 171.405 112.75" fill="#3B43F2"/>
<path fill-rule="evenodd" clip-rule="evenodd" d="M198.905 112.75C198.905 114.269 197.673 115.5 196.155 115.5C194.636 115.5 193.405 114.269 193.405 112.75C193.405 111.231 194.636 110 196.155 110C197.673 110 198.905 111.231 198.905 112.75" fill="#3B43F2"/>
<path fill-rule="evenodd" clip-rule="evenodd" d="M6.40479 140.25C6.40479 141.769 5.17347 143 3.65479 143C2.1361 143 0.904785 141.769 0.904785 140.25C0.904785 138.731 2.1361 137.5 3.65479 137.5C5.17347 137.5 6.40479 138.731 6.40479 140.25" fill="#3B43F2"/>
<path fill-rule="evenodd" clip-rule="evenodd" d="M33.9048 140.25C33.9048 141.769 32.6735 143 31.1548 143C29.6361 143 28.4048 141.769 28.4048 140.25C28.4048 138.731 29.6361 137.5 31.1548 137.5C32.6735 137.5 33.9048 138.731 33.9048 140.25" fill="#3B43F2"/>
<path fill-rule="evenodd" clip-rule="evenodd" d="M61.4048 140.25C61.4048 141.769 60.1735 143 58.6548 143C57.1361 143 55.9048 141.769 55.9048 140.25C55.9048 138.731 57.1361 137.5 58.6548 137.5C60.1735 137.5 61.4048 138.731 61.4048 140.25" fill="#3B43F2"/>
<path fill-rule="evenodd" clip-rule="evenodd" d="M88.9048 140.25C88.9048 141.769 87.6735 143 86.1548 143C84.6361 143 83.4048 141.769 83.4048 140.25C83.4048 138.731 84.6361 137.5 86.1548 137.5C87.6735 137.5 88.9048 138.731 88.9048 140.25" fill="#3B43F2"/>
<path fill-rule="evenodd" clip-rule="evenodd" d="M116.405 140.25C116.405 141.769 115.173 143 113.655 143C112.136 143 110.905 141.769 110.905 140.25C110.905 138.731 112.136 137.5 113.655 137.5C115.173 137.5 116.405 138.731 116.405 140.25" fill="#3B43F2"/>
<path fill-rule="evenodd" clip-rule="evenodd" d="M143.905 140.25C143.905 141.769 142.673 143 141.155 143C139.636 143 138.405 141.769 138.405 140.25C138.405 138.731 139.636 137.5 141.155 137.5C142.673 137.5 143.905 138.731 143.905 140.25" fill="#3B43F2"/>
<path fill-rule="evenodd" clip-rule="evenodd" d="M171.405 140.25C171.405 141.769 170.173 143 168.655 143C167.136 143 165.905 141.769 165.905 140.25C165.905 138.731 167.136 137.5 168.655 137.5C170.173 137.5 171.405 138.731 171.405 140.25" fill="#3B43F2"/>
<path fill-rule="evenodd" clip-rule="evenodd" d="M198.905 140.25C198.905 141.769 197.673 143 196.155 143C194.636 143 193.405 141.769 193.405 140.25C193.405 138.731 194.636 137.5 196.155 137.5C197.673 137.5 198.905 138.731 198.905 140.25" fill="#3B43F2"/>
<path fill-rule="evenodd" clip-rule="evenodd" d="M6.40479 167.75C6.40479 169.269 5.17347 170.5 3.65479 170.5C2.1361 170.5 0.904785 169.269 0.904785 167.75C0.904785 166.231 2.1361 165 3.65479 165C5.17347 165 6.40479 166.231 6.40479 167.75" fill="#3B43F2"/>
<path fill-rule="evenodd" clip-rule="evenodd" d="M33.9048 167.75C33.9048 169.269 32.6735 170.5 31.1548 170.5C29.6361 170.5 28.4048 169.269 28.4048 167.75C28.4048 166.231 29.6361 165 31.1548 165C32.6735 165 33.9048 166.231 33.9048 167.75" fill="#3B43F2"/>
<path fill-rule="evenodd" clip-rule="evenodd" d="M61.4048 167.75C61.4048 169.269 60.1735 170.5 58.6548 170.5C57.1361 170.5 55.9048 169.269 55.9048 167.75C55.9048 166.231 57.1361 165 58.6548 165C60.1735 165 61.4048 166.231 61.4048 167.75" fill="#3B43F2"/>
<path fill-rule="evenodd" clip-rule="evenodd" d="M88.9048 167.75C88.9048 169.269 87.6735 170.5 86.1548 170.5C84.6361 170.5 83.4048 169.269 83.4048 167.75C83.4048 166.231 84.6361 165 86.1548 165C87.6735 165 88.9048 166.231 88.9048 167.75" fill="#3B43F2"/>
<path fill-rule="evenodd" clip-rule="evenodd" d="M116.405 167.75C116.405 169.269 115.173 170.5 113.655 170.5C112.136 170.5 110.905 169.269 110.905 167.75C110.905 166.231 112.136 165 113.655 165C115.173 165 116.405 166.231 116.405 167.75" fill="#3B43F2"/>
<path fill-rule="evenodd" clip-rule="evenodd" d="M143.905 167.75C143.905 169.269 142.673 170.5 141.155 170.5C139.636 170.5 138.405 169.269 138.405 167.75C138.405 166.231 139.636 165 141.155 165C142.673 165 143.905 166.231 143.905 167.75" fill="#3B43F2"/>
<path fill-rule="evenodd" clip-rule="evenodd" d="M171.405 167.75C171.405 169.269 170.173 170.5 168.655 170.5C167.136 170.5 165.905 169.269 165.905 167.75C165.905 166.231 167.136 165 168.655 165C170.173 165 171.405 166.231 171.405 167.75" fill="#3B43F2"/>
<path fill-rule="evenodd" clip-rule="evenodd" d="M198.905 167.75C198.905 169.269 197.673 170.5 196.155 170.5C194.636 170.5 193.405 169.269 193.405 167.75C193.405 166.231 194.636 165 196.155 165C197.673 165 198.905 166.231 198.905 167.75" fill="#3B43F2"/>
<path fill-rule="evenodd" clip-rule="evenodd" d="M6.40479 195.25C6.40479 196.769 5.17347 198 3.65479 198C2.1361 198 0.904785 196.769 0.904785 195.25C0.904785 193.731 2.1361 192.5 3.65479 192.5C5.17347 192.5 6.40479 193.731 6.40479 195.25" fill="#3B43F2"/>
<path fill-rule="evenodd" clip-rule="evenodd" d="M33.9048 195.25C33.9048 196.769 32.6735 198 31.1548 198C29.6361 198 28.4048 196.769 28.4048 195.25C28.4048 193.731 29.6361 192.5 31.1548 192.5C32.6735 192.5 33.9048 193.731 33.9048 195.25" fill="#3B43F2"/>
<path fill-rule="evenodd" clip-rule="evenodd" d="M61.4048 195.25C61.4048 196.769 60.1735 198 58.6548 198C57.1361 198 55.9048 196.769 55.9048 195.25C55.9048 193.731 57.1361 192.5 58.6548 192.5C60.1735 192.5 61.4048 193.731 61.4048 195.25" fill="#3B43F2"/>
<path fill-rule="evenodd" clip-rule="evenodd" d="M88.9048 195.25C88.9048 196.769 87.6735 198 86.1548 198C84.6361 198 83.4048 196.769 83.4048 195.25C83.4048 193.731 84.6361 192.5 86.1548 192.5C87.6735 192.5 88.9048 193.731 88.9048 195.25" fill="#3B43F2"/>
<path fill-rule="evenodd" clip-rule="evenodd" d="M116.405 195.25C116.405 196.769 115.173 198 113.655 198C112.136 198 110.905 196.769 110.905 195.25C110.905 193.731 112.136 192.5 113.655 192.5C115.173 192.5 116.405 193.731 116.405 195.25" fill="#3B43F2"/>
<path fill-rule="evenodd" clip-rule="evenodd" d="M143.905 195.25C143.905 196.769 142.673 198 141.155 198C139.636 198 138.405 196.769 138.405 195.25C138.405 193.731 139.636 192.5 141.155 192.5C142.673 192.5 143.905 193.731 143.905 195.25" fill="#3B43F2"/>
<path fill-rule="evenodd" clip-rule="evenodd" d="M171.405 195.25C171.405 196.769 170.173 198 168.655 198C167.136 198 165.905 196.769 165.905 195.25C165.905 193.731 167.136 192.5 168.655 192.5C170.173 192.5 171.405 193.731 171.405 195.25" fill="#3B43F2"/>
<path fill-rule="evenodd" clip-rule="evenodd" d="M198.905 195.25C198.905 196.769 197.673 198 196.155 198C194.636 198 193.405 196.769 193.405 195.25C193.405 193.731 194.636 192.5 196.155 192.5C197.673 192.5 198.905 193.731 198.905 195.25" fill="#3B43F2"/>
</svg>
